<?xml version="1.0" encoding="utf-8"?>
<!-- Generator: Adobe Illustrator 22.0.1, SVG Export Plug-In . SVG Version: 6.00 Build 0)  -->
<svg version="1.1" id="Livello_1" xmlns="http://www.w3.org/2000/svg" xmlns:xlink="http://www.w3.org/1999/xlink" x="0px" y="0px"
	 viewBox="0 0 132.3 132.5" style="enable-background:new 0 0 132.3 132.5;" xml:space="preserve">
<style type="text/css">
	.st0{fill:#4ED6FF;}
	.st1{fill:none;stroke:#000000;stroke-width:2;stroke-miterlimit:10;}
</style>
<title>green-planet</title>
<g id="pianeta-rosso">
	<circle class="st0" cx="66.4" cy="65.9" r="65.9"/>
	<path class="st1" d="M132.3,61.2L93.5,84.7c-10.1,6.1-23.1,4.2-31.1-4.5l-8.5-9.4c-6.6-7.3-8.3-17.7-4.3-26.7l3.1-7
		c5.3-12,0.3-26-11.4-32l0,0"/>
	<path class="st1" d="M108.8,116.3l-45.2-10.4c-13.3-3.1-27.1,2.8-34.1,14.6l0,0"/>
	<path class="st1" d="M122,30.5l-35.3,30c-4.6,3.9-11.5,3.5-15.6-0.9l0,0c-4-4.3-4-11,0-15.3l11.4-12.4c4-4.4,3.9-11.2-0.2-15.5
		L66.4,0"/>
	<path class="st1" d="M19.2,19.9l9.3,32.4c5.3,18.4-1.9,38.2-17.8,48.9l0,0"/>
</g>
</svg>
