<svg width="365" height="365" viewBox="0 0 365 365" fill="none" xmlns="http://www.w3.org/2000/svg">
<circle cx="183" cy="182" r="174" fill="#8154EC"/>
<circle cx="92.5" cy="192.5" r="24.5" stroke="white" stroke-width="10"/>
<path d="M97 155H271V183C271 231.049 232.049 270 184 270V270C135.951 270 97 231.049 97 183V155Z" fill="white"/>
<mask id="mask0" mask-type="alpha" maskUnits="userSpaceOnUse" x="97" y="110" width="174" height="89">
<ellipse cx="184" cy="154.5" rx="87" ry="44.5" fill="#C4C4C4"/>
</mask>
<g mask="url(#mask0)">
<ellipse cx="184" cy="154.5" rx="87" ry="44.5" fill="#DCDCDC"/>
<ellipse cx="184" cy="199.5" rx="87" ry="44.5" fill="black"/>
</g>
</svg>
